ysyx-workbench/npc/waveform.vcd
$version Generated by VerilatedVcd $end
$timescale 1ps $end

 $scope module TOP $end
  $var wire  1 p clk $end
  $var wire  1 q rst $end
  $scope module top $end
   $var wire  1 j alu_less_than $end
   $var wire  4 R alu_op [3:0] $end
   $var wire 32 h alu_result [31:0] $end
   $var wire 32 f alu_src1 [31:0] $end
   $var wire 32 g alu_src2 [31:0] $end
   $var wire  1 i alu_zero $end
   $var wire  1 v branch_taken $end
   $var wire 32 s branch_target [31:0] $end
   $var wire  1 p clk $end
   $var wire 32 u csr_read_data [31:0] $end
   $var wire 32 % cycle_count [31:0] $end
   $var wire  3 O funct3 [2:0] $end
   $var wire  7 P funct7 [6:0] $end
   $var wire 32 \ imm [31:0] $end
   $var wire 32 I inst [31:0] $end
   $var wire  3 Q inst_type [2:0] $end
   $var wire  1 Z is_auipc $end
   $var wire  1 V is_branch $end
   $var wire  1 J is_ebreak $end
   $var wire  1 W is_jal $end
   $var wire  1 X is_jalr $end
   $var wire  1 Y is_lui $end
   $var wire  1 S mem_read $end
   $var wire 32 k mem_read_data [31:0] $end
   $var wire  1 T mem_write $end
   $var wire 32 r next_pc [31:0] $end
   $var wire  7 N opcode [6:0] $end
   $var wire 32 G pc [31:0] $end
   $var wire 32 H pc_plus_4 [31:0] $end
   $var wire  5 M rd_addr [4:0] $end
   $var wire 32 t rd_data [31:0] $end
   $var wire  1 U reg_write $end
   $var wire  5 K rs1_addr [4:0] $end
   $var wire 32 d rs1_data [31:0] $end
   $var wire  5 L rs2_addr [4:0] $end
   $var wire 32 e rs2_data [31:0] $end
   $var wire  1 q rst $end
   $var wire  1 $ trap_flag $end
   $var wire  1 [ use_imm $end
   $scope module alu $end
    $var wire  4 R alu_op [3:0] $end
    $var wire  1 j less_than $end
    $var wire 64 l mul_signed [63:0] $end
    $var wire 64 n mul_unsigned [63:0] $end
    $var wire 32 h result [31:0] $end
    $var wire 32 f src1 [31:0] $end
    $var wire 32 g src2 [31:0] $end
    $var wire  1 i zero $end
   $upscope $end
   $scope module csr $end
    $var wire  1 p clk $end
    $var wire 12 ] csr_addr [11:0] $end
    $var wire 32 u csr_read_data [31:0] $end
    $var wire  1 ^ csr_write $end
    $var wire 32 d csr_write_data [31:0] $end
    $var wire  1 q rst $end
    $var wire  1 $ trap_flag $end
   $upscope $end
   $scope module data_mem $end
    $var wire 32 h addr [31:0] $end
    $var wire  1 p clk $end
    $var wire  3 O funct3 [2:0] $end
    $var wire  1 S mem_read $end
    $var wire  1 T mem_write $end
    $var wire 32 k read_data [31:0] $end
    $var wire 32 e write_data [31:0] $end
    $scope module unnamedblk1 $end
     $var wire 32 # i [31:0] $end
    $upscope $end
   $upscope $end
   $scope module gpr $end
    $var wire  1 p clk $end
    $var wire  5 M rd_addr [4:0] $end
    $var wire 32 t rd_data [31:0] $end
    $var wire  1 U reg_write $end
    $var wire 32 & rf[0] [31:0] $end
    $var wire 32 0 rf[10] [31:0] $end
    $var wire 32 1 rf[11] [31:0] $end
    $var wire 32 2 rf[12] [31:0] $end
    $var wire 32 3 rf[13] [31:0] $end
    $var wire 32 4 rf[14] [31:0] $end
    $var wire 32 5 rf[15] [31:0] $end
    $var wire 32 6 rf[16] [31:0] $end
    $var wire 32 7 rf[17] [31:0] $end
    $var wire 32 8 rf[18] [31:0] $end
    $var wire 32 9 rf[19] [31:0] $end
    $var wire 32 ' rf[1] [31:0] $end
    $var wire 32 : rf[20] [31:0] $end
    $var wire 32 ; rf[21] [31:0] $end
    $var wire 32 < rf[22] [31:0] $end
    $var wire 32 = rf[23] [31:0] $end
    $var wire 32 > rf[24] [31:0] $end
    $var wire 32 ? rf[25] [31:0] $end
    $var wire 32 @ rf[26] [31:0] $end
    $var wire 32 A rf[27] [31:0] $end
    $var wire 32 B rf[28] [31:0] $end
    $var wire 32 C rf[29] [31:0] $end
    $var wire 32 ( rf[2] [31:0] $end
    $var wire 32 D rf[30] [31:0] $end
    $var wire 32 E rf[31] [31:0] $end
    $var wire 32 ) rf[3] [31:0] $end
    $var wire 32 * rf[4] [31:0] $end
    $var wire 32 + rf[5] [31:0] $end
    $var wire 32 , rf[6] [31:0] $end
    $var wire 32 - rf[7] [31:0] $end
    $var wire 32 . rf[8] [31:0] $end
    $var wire 32 / rf[9] [31:0] $end
    $var wire  5 K rs1_addr [4:0] $end
    $var wire 32 d rs1_data [31:0] $end
    $var wire  5 L rs2_addr [4:0] $end
    $var wire 32 e rs2_data [31:0] $end
    $var wire  1 q rst $end
    $scope module unnamedblk1 $end
     $var wire 32 F i [31:0] $end
    $upscope $end
   $upscope $end
   $scope module idu $end
    $var wire  4 R alu_op [3:0] $end
    $var wire  4 c alu_op_i_type [3:0] $end
    $var wire  4 b alu_op_r_type [3:0] $end
    $var wire  1 V b_type $end
    $var wire  3 O funct3 [2:0] $end
    $var wire  7 P funct7 [6:0] $end
    $var wire  1 ` i_type $end
    $var wire 32 I inst [31:0] $end
    $var wire  3 Q inst_type [2:0] $end
    $var wire  1 Z is_auipc $end
    $var wire  1 V is_branch $end
    $var wire  1 W is_jal $end
    $var wire  1 X is_jalr $end
    $var wire  1 Y is_lui $end
    $var wire  1 W j_type $end
    $var wire  1 S mem_read $end
    $var wire  1 T mem_write $end
    $var wire  7 N opcode [6:0] $end
    $var wire  1 _ r_type $end
    $var wire  5 M rd_addr [4:0] $end
    $var wire  1 U reg_write $end
    $var wire  5 K rs1_addr [4:0] $end
    $var wire  5 L rs2_addr [4:0] $end
    $var wire  1 T s_type $end
    $var wire  1 a u_type $end
    $var wire  1 [ use_imm $end
   $upscope $end
   $scope module imm_gen $end
    $var wire 32 \ imm [31:0] $end
    $var wire 32 I inst [31:0] $end
    $var wire  3 Q inst_type [2:0] $end
   $upscope $end
   $scope module inst_mem $end
    $var wire 32 G addr [31:0] $end
    $var wire  1 p clk $end
    $var wire 32 I inst [31:0] $end
   $upscope $end
   $scope module pc_reg $end
    $var wire 32 w RESET_VECTOR [31:0] $end
    $var wire  1 p clk $end
    $var wire 32 r next_pc [31:0] $end
    $var wire 32 G pc [31:0] $end
    $var wire  1 q rst $end
   $upscope $end
  $upscope $end
 $upscope $end
$enddefinitions $end


#0
b00000000000000000001000000000000 #
0$
b00000000000000000000000000000000 %
b00000000000000000000000000000000 &
b00000000000000000000000000000000 '
b00000000000000000000000000000000 (
b00000000000000000000000000000000 )
b00000000000000000000000000000000 *
b00000000000000000000000000000000 +
b00000000000000000000000000000000 ,
b00000000000000000000000000000000 -
b00000000000000000000000000000000 .
b00000000000000000000000000000000 /
b00000000000000000000000000000000 0
b00000000000000000000000000000000 1
b00000000000000000000000000000000 2
b00000000000000000000000000000000 3
b00000000000000000000000000000000 4
b00000000000000000000000000000000 5
b00000000000000000000000000000000 6
b00000000000000000000000000000000 7
b00000000000000000000000000000000 8
b00000000000000000000000000000000 9
b00000000000000000000000000000000 :
b00000000000000000000000000000000 ;
b00000000000000000000000000000000 <
b00000000000000000000000000000000 =
b00000000000000000000000000000000 >
b00000000000000000000000000000000 ?
b00000000000000000000000000000000 @
b00000000000000000000000000000000 A
b00000000000000000000000000000000 B
b00000000000000000000000000000000 C
b00000000000000000000000000000000 D
b00000000000000000000000000000000 E
b00000000000000000000000000000000 F
b00000000000000000000000000000000 G
b00000000000000000000000000000100 H
b00000000011100000000000110110111 I
0J
b00000 K
b00111 L
b00011 M
b0110111 N
b000 O
b0000000 P
b100 Q
b0000 R
0S
0T
1U
0V
0W
0X
1Y
0Z
1[
b00000000011100000000000000000000 \
b000000000111 ]
0^
0_
0`
1a
b0000 b
b0000 c
b00000000000000000000000000000000 d
b00000000000000000000000000000000 e
b00000000000000000000000000000000 f
b00000000011100000000000000000000 g
b00000000011100000000000000000000 h
0i
1j
b00000000000000000000000000000000 k
b0000000000000000000000000000000000000000000000000000000000000000 l
b0000000000000000000000000000000000000000000000000000000000000000 n
0p
1q
b00000000000000000000000000000100 r
b00000000011100000000000000000000 s
b00000000011100000000000000000000 t
b00000000000000000000000000000000 u
0v
b10000000000000000000000000000000 w
#1
b00000000000000000000000000100000 F
b10000000000000000000000000000000 G
b10000000000000000000000000000100 H
b00000000000000000000010000010011 I
b00000 L
b01000 M
b0010011 N
b001 Q
0Y
b00000000000000000000000000000000 \
b000000000000 ]
1`
0a
b00000000000000000000000000000000 g
b00000000000000000000000000000000 h
1i
0j
1p
b10000000000000000000000000000100 r
b10000000000000000000000000000000 s
b00000000000000000000000000000000 t
#2
0p
#3
1p
#4
0p
#5
1p
#6
0p
#7
1p
#8
0p
#9
1p
#10
0p
0q
#11
b00000000000000000000000000000001 %
b10000000000000000000000000000100 G
b10000000000000000000000000001000 H
b00000000000000001001000100010111 I
b00001 K
b00010 M
b0010111 N
b001 O
b100 Q
1Z
b00000000000000001001000000000000 \
0`
1a
b0010 b
b0010 c
b10000000000000000000000000000100 f
b00000000000000001001000000000000 g
b10000000000000001001000000000100 h
0i
b1111111111111111101110000000000000000000000000100100000000000000 l
b0000000000000000010010000000000000000000000000100100000000000000 n
1p
b10000000000000000000000000001000 r
b10000000000000001001000000000100 s
b10000000000000000000000000001000 t
#12
0p
#13
b00000000000000000000000000000010 %
b10000000000000000000000000001000 (
b10000000000000000000000000001000 G
b10000000000000000000000000001100 H
b11111111110000010000000100010011 I
b00010 K
b11100 L
b0010011 N
b000 O
b1111111 P
b001 Q
0Z
b11111111111111111111111111111100 \
b111111111100 ]
1`
0a
b0001 b
b0000 c
b10000000000000000000000000001000 d
b10000000000000000000000000001000 f
b11111111111111111111111111111100 g
b10000000000000000000000000000100 h
1j
b0000000000000000000000000000000111111111111111111111111111100000 l
b1000000000000000000000000000010111111111111111111111111111100000 n
1p
b10000000000000000000000000001100 r
b10000000000000000000000000000100 s
b10000000000000000000000000000100 t
#14
0p
#15
b00000000000000000000000000000011 %
b10000000000000000000000000000100 (
b10000000000000000000000000001100 G
b10000000000000000000000000010000 H
b00001001100000000000000011101111 I
b00000 K
b11000 L
b00001 M
b1101111 N
b0000100 P
b101 Q
1W
b00000000000000000000000010011000 \
b000010011000 ]
0`
b0000 b
b00000000000000000000000000000000 d
b10000000000000000000000000001100 f
b00000000000000000000000010011000 g
b10000000000000000000000010100100 h
0j
b1111111111111111111111111011010000000000000000000000011100100000 l
b0000000000000000000000000100110000000000000000000000011100100000 n
1p
b10000000000000000000000010100100 r
b10000000000000000000000010100100 s
b10000000000000000000000000010000 t
#16
0p
#17
b00000000000000000000000000000100 %
b10000000000000000000000000010000 '
b10000000000000000000000010100100 G
b10000000000000000000000010101000 H
b11111111010000010000000100010011 I
b00010 K
b10100 L
b00010 M
b0010011 N
b1111111 P
b001 Q
0W
b11111111111111111111111111110100 \
b111111110100 ]
1`
b0001 b
b10000000000000000000000000000100 d
b10000000000000000000000000000100 f
b11111111111111111111111111110100 g
b01111111111111111111111111111000 h
1j
b0000000000000000000000000000010111111111111111111111111111010000 l
b0111111111111111111111111111110111111111111111111111111111010000 n
1p
b10000000000000000000000010101000 r
b10000000000000000000000010011000 s
b01111111111111111111111111111000 t
#18
0p
#19
b00000000000000000000000000000101 %
b01111111111111111111111111111000 (
b10000000000000000000000010101000 G
b10000000000000000000000010101100 H
b00000000000000000000010100010111 I
b00000 K
b00000 L
b01010 M
b0010111 N
b0000000 P
b100 Q
1Z
b00000000000000000000000000000000 \
b000000000000 ]
0`
1a
b0000 b
b00000000000000000000000000000000 d
b10000000000000000000000010101000 f
b00000000000000000000000000000000 g
b10000000000000000000000010101000 h
0j
b0000000000000000000000000000000000000000000000000000000000000000 l
b0000000000000000000000000000000000000000000000000000000000000000 n
1p
b10000000000000000000000010101100 r
b10000000000000000000000010101000 s
b10000000000000000000000010101100 t
#20
0p
#21
b00000000000000000000000000000110 %
b10000000000000000000000010101100 0
b10000000000000000000000010101100 G
b10000000000000000000000010110000 H
b00000001100001010000010100010011 I
b01010 K
b11000 L
b0010011 N
b001 Q
0Z
b00000000000000000000000000011000 \
b000000011000 ]
1`
0a
b10000000000000000000000010101100 d
b10000000000000000000000010101100 f
b00000000000000000000000000011000 g
b10000000000000000000000011000100 h
b1111111111111111111111111111010000000000000000000001000000100000 l
b0000000000000000000000000000110000000000000000000001000000100000 n
1p
b10000000000000000000000010110000 r
b10000000000000000000000011000100 s
b10000000000000000000000011000100 t
#22
0p
#23
b00000000000000000000000000000111 %
b10000000000000000000000011000100 0
b10000000000000000000000010110000 G
b10000000000000000000000010110100 H
b00000000000100010010010000100011 I
b00010 K
b00001 L
b01000 M
b0100011 N
b010 O
b010 Q
1T
0U
b00000000000000000000000000001000 \
b000000000001 ]
0`
b0011 b
b0011 c
b01111111111111111111111111111000 d
b10000000000000000000000000010000 e
b01111111111111111111111111111000 f
b00000000000000000000000000001000 g
b10000000000000000000000000000000 h
b0000000000000000000000000000001111111111111111111111111111000000 l
b0000000000000000000000000000001111111111111111111111111111000000 n
1p
b10000000000000000000000010110100 r
b10000000000000000000000010111000 s
b10000000000000000000000000000000 t
#24
0p
#25
b00000000000000000000000000001000 %
b10000000000000000000000010110100 G
b10000000000000000000000010111000 H
b11110101110111111111000011101111 I
b11111 K
b11101 L
b00001 M
b1101111 N
b111 O
b1111010 P
b101 Q
0T
1U
1W
b11111111111111111111111101011100 \
b111101011101 ]
b1001 b
b1001 c
b00000000000000000000000000000000 d
b00000000000000000000000000000000 e
b10000000000000000000000010110100 f
b11111111111111111111111101011100 g
b10000000000000000000000000010000 h
1j
b0000000000000000000000000101000111111111111111111000110010110000 l
b1000000000000000000000000110000111111111111111111000110010110000 n
1p
b10000000000000000000000000010000 r
b10000000000000000000000000010000 s
b10000000000000000000000010111000 t
#26
0p
#27
b00000000000000000000000000001001 %
b10000000000000000000000010111000 '
b10000000000000000000000000010000 G
b10000000000000000000000000010100 H
b11111111010000010000000100010011 I
b00010 K
b10100 L
b00010 M
b0010011 N
b000 O
b1111111 P
b001 Q
0W
b11111111111111111111111111110100 \
b111111110100 ]
1`
b0001 b
b0000 c
b01111111111111111111111111111000 d
b01111111111111111111111111111000 f
b11111111111111111111111111110100 g
b01111111111111111111111111101100 h
b1111111111111111111111111111101000000000000000000000000001100000 l
b0111111111111111111111111111001000000000000000000000000001100000 n
1p
b10000000000000000000000000010100 r
b10000000000000000000000000000100 s
b01111111111111111111111111101100 t
#28
0p
#29
b00000000000000000000000000001010 %
b01111111111111111111111111101100 (
b10000000000000000000000000010100 G
b10000000000000000000000000011000 H
b00000000000000000000001110010111 I
b00000 K
b00000 L
b00111 M
b0010111 N
b0000000 P
b100 Q
1Z
b00000000000000000000000000000000 \
b000000000000 ]
0`
1a
b0000 b
b00000000000000000000000000000000 d
b10000000000000000000000000010100 f
b00000000000000000000000000000000 g
b10000000000000000000000000010100 h
0j
b0000000000000000000000000000000000000000000000000000000000000000 l
b0000000000000000000000000000000000000000000000000000000000000000 n
1p
b10000000000000000000000000011000 r
b10000000000000000000000000010100 s
b10000000000000000000000000011000 t
#30
0p
#31
b00000000000000000000000000001011 %
b10000000000000000000000000011000 -
b10000000000000000000000000011000 G
b10000000000000000000000000011100 H
b00011110110000111000001110010011 I
b00111 K
b01100 L
b0010011 N
b0001111 P
b001 Q
0Z
b00000000000000000000000111101100 \
b000111101100 ]
1`
0a
b10000000000000000000000000011000 d
b10000000000000000000000000011000 f
b00000000000000000000000111101100 g
b10000000000000000000001000000100 h
b1111111111111111111111110000101000000000000000000010111000100000 l
b0000000000000000000000001111011000000000000000000010111000100000 n
1p
b10000000000000000000000000011100 r
b10000000000000000000001000000100 s
b10000000000000000000001000000100 t
#32
0p
#33
b00000000000000000000000000001100 %
b10000000000000000000001000000100 -
b10000000000000000000000000011100 G
b10000000000000000000000000100000 H
b00000000100000010010001000100011 I
b00010 K
b01000 L
b00100 M
b0100011 N
b010 O
b0000000 P
b010 Q
1T
0U
b00000000000000000000000000000100 \
b000000001000 ]
0`
b0011 b
b0011 c
b01111111111111111111111111101100 d
b01111111111111111111111111101100 f
b00000000000000000000000000000100 g
b01111111111111111111111111110000 h
b0000000000000000000000000000000111111111111111111111111110110000 l
b0000000000000000000000000000000111111111111111111111111110110000 n
1p
b10000000000000000000000000100000 r
b10000000000000000000000000100000 s
b01111111111111111111111111110000 t
#34
0p
#35
b00000000000000000000000000001101 %
b10000000000000000000000000100000 G
b10000000000000000000000000100100 H
b00000000100100010010000000100011 I
b01001 L
b00000 M
b00000000000000000000000000000000 \
b000000001001 ]
b00000000000000000000000000000000 g
b01111111111111111111111111101100 h
b0000000000000000000000000000000000000000000000000000000000000000 l
b0000000000000000000000000000000000000000000000000000000000000000 n
1p
b10000000000000000000000000100100 r
b01111111111111111111111111101100 t
#36
0p
#37
b00000000000000000000000000001110 %
b10000000000000000000000000100100 G
b10000000000000000000000000101000 H
b00000000000100010010010000100011 I
b00001 L
b01000 M
b00000000000000000000000000001000 \
b000000000001 ]
b10000000000000000000000010111000 e
b00000000000000000000000000001000 g
b01111111111111111111111111110100 h
b0000000000000000000000000000001111111111111111111111111101100000 l
b0000000000000000000000000000001111111111111111111111111101100000 n
1p
b10000000000000000000000000101000 r
b10000000000000000000000000101100 s
b01111111111111111111111111110100 t
#38
0p
#39
b00000000000000000000000000001111 %
b10000000000000000000000000101000 G
b10000000000000000000000000101100 H
b00000000000000000000010010010111 I
b00000 K
b00000 L
b01001 M
b0010111 N
b000 O
b100 Q
0T
1U
1Z
b00000000000000000000000000000000 \
b000000000000 ]
1a
b0000 b
b0000 c
b00000000000000000000000000000000 d
b00000000000000000000000000000000 e
b10000000000000000000000000101000 f
b00000000000000000000000000000000 g
b10000000000000000000000000101000 h
b0000000000000000000000000000000000000000000000000000000000000000 l
b0000000000000000000000000000000000000000000000000000000000000000 n
1p
b10000000000000000000000000101100 r
b10000000000000000000000000101000 s
b10000000000000000000000000101100 t
#40
0p
#41
b00000000000000000000000000010000 %
b10000000000000000000000000101100 /
b10000000000000000000000000101100 G
b10000000000000000000000000110000 H
b00011111100001001000010010010011 I
b01001 K
b11000 L
b0010011 N
b0001111 P
b001 Q
0Z
b00000000000000000000000111111000 \
b000111111000 ]
1`
0a
b10000000000000000000000000101100 d
b10000000000000000000000000101100 f
b00000000000000000000000111111000 g
b10000000000000000000001000100100 h
b1111111111111111111111110000010000000000000000000101011010100000 l
b0000000000000000000000001111110000000000000000000101011010100000 n
1p
b10000000000000000000000000110000 r
b10000000000000000000001000100100 s
b10000000000000000000001000100100 t
#42
0p
#43
b00000000000000000000000000010001 %
b10000000000000000000001000100100 /
b10000000000000000000000000110000 G
b10000000000000000000000000110100 H
b00000000000000111000001010010011 I
b00111 K
b00000 L
b00101 M
b0000000 P
b00000000000000000000000000000000 \
b000000000000 ]
b10000000000000000000001000000100 d
b10000000000000000000001000000100 f
b00000000000000000000000000000000 g
b10000000000000000000001000000100 h
b0000000000000000000000000000000000000000000000000000000000000000 l
b0000000000000000000000000000000000000000000000000000000000000000 n
1p
b10000000000000000000000000110100 r
b10000000000000000000000000110000 s
b10000000000000000000001000000100 t
#44
0p
#45
b00000000000000000000000000010010 %
b10000000000000000000001000000100 +
b10000000000000000000000000110100 G
b10000000000000000000000000111000 H
b00000000000000000000011010010011 I
b00000 K
b01101 M
b00000000000000000000000000000000 d
b00000000000000000000000000000000 f
b00000000000000000000000000000000 h
1i
1p
b10000000000000000000000000111000 r
b10000000000000000000000000110100 s
b00000000000000000000000000000000 t
#46
0p
#47
b00000000000000000000000000010011 %
b10000000000000000000000000111000 G
b10000000000000000000000000111100 H
b00000000000000000000010000010111 I
b01000 M
b0010111 N
b100 Q
1Z
0`
1a
b10000000000000000000000000111000 f
b10000000000000000000000000111000 h
0i
1p
b10000000000000000000000000111100 r
b10000000000000000000000000111000 s
b10000000000000000000000000111100 t
#48
0p
#49
b00000000000000000000000000010100 %
b10000000000000000000000000111100 .
b10000000000000000000000000111100 G
b10000000000000000000000001000000 H
b00001100100001000000010000010011 I
b01000 K
b01000 L
b0010011 N
b0000110 P
b001 Q
0Z
b00000000000000000000000011001000 \
b000011001000 ]
1`
0a
b10000000000000000000000000111100 d
b10000000000000000000000000111100 e
b10000000000000000000000000111100 f
b00000000000000000000000011001000 g
b10000000000000000000000100000100 h
b1111111111111111111111111001110000000000000000000010111011100000 l
b0000000000000000000000000110010000000000000000000010111011100000 n
1p
b10000000000000000000000001000000 r
b10000000000000000000000100000100 s
b10000000000000000000000100000100 t
#50
0p
#51
b00000000000000000000000000010101 %
b10000000000000000000000100000100 .
b10000000000000000000000001000000 G
b10000000000000000000000001000100 H
b00000000000000101010001100000011 I
b00101 K
b00000 L
b00110 M
b0000011 N
b010 O
b0000000 P
b0011 R
1S
b00000000000000000000000000000000 \
b000000000000 ]
b0011 b
b0011 c
b10000000000000000000001000000100 d
b00000000000000000000000000000000 e
b10000000000000000000001000000100 f
b00000000000000000000000000000000 g
b00000000000000000000000000000001 h
1j
b00000000100000000000000000000000 k
b0000000000000000000000000000000000000000000000000000000000000000 l
b0000000000000000000000000000000000000000000000000000000000000000 n
1p
b10000000000000000000000001000100 r
b10000000000000000000000001000000 s
b00000000100000000000000000000000 t
#52
0p
#53
b00000000000000000000000000010110 %
b00000000100000000000000000000000 ,
b10000000000000000000000001000100 G
b10000000000000000000000001001000 H
b00000000001001101001011100010011 I
b01101 K
b00010 L
b01110 M
b0010011 N
b001 O
b0010 R
0S
b00000000000000000000000000000010 \
b000000000010 ]
b0010 b
b0010 c
b00000000000000000000000000000000 d
b01111111111111111111111111101100 e
b00000000000000000000000000000000 f
b00000000000000000000000000000010 g
b00000000000000000000000000000000 h
1i
b00000000000000000000000000000000 k
1p
b10000000000000000000000001001000 r
b10000000000000000000000001000110 s
b00000000000000000000000000000000 t
#54
0p
#55
b00000000000000000000000000010111 %
b10000000000000000000000001001000 G
b10000000000000000000000001001100 H
b00000000111001000000011100110011 I
b01000 K
b01110 L
b0110011 N
b000 O
b000 Q
b0000 R
0[
b00000000000000000000000000000000 \
b000000001110 ]
1_
0`
b0000 b
b0000 c
b10000000000000000000000100000100 d
b00000000000000000000000000000000 e
b10000000000000000000000100000100 f
b00000000000000000000000000000000 g
b10000000000000000000000100000100 h
0i
0j
1p
b10000000000000000000000001001100 r
b10000000000000000000000001001000 s
b10000000000000000000000100000100 t
#56
0p
#57
b00000000000000000000000000011000 %
b10000000000000000000000100000100 4
b10000000000000000000000001001100 G
b10000000000000000000000001010000 H
b00000000100001101000010100010011 I
b01101 K
b01000 L
b01010 M
b0010011 N
b001 Q
1[
b00000000000000000000000000001000 \
b000000001000 ]
0_
1`
b00000000000000000000000000000000 d
b10000000000000000000000100000100 e
b00000000000000000000000000000000 f
b00000000000000000000000000001000 g
b00000000000000000000000000001000 h
1j
1p
b10000000000000000000000001010000 r
b10000000000000000000000001010100 s
b00000000000000000000000000001000 t
#58
0p
#59
b00000000000000000000000000011001 %
b00000000000000000000000000001000 0
b10000000000000000000000001010000 G
b10000000000000000000000001010100 H
b00000000000000111000011000010011 I
b00111 K
b00000 L
b01100 M
b00000000000000000000000000000000 \
b000000000000 ]
b10000000000000000000001000000100 d
b00000000000000000000000000000000 e
b10000000000000000000001000000100 f
b00000000000000000000000000000000 g
b10000000000000000000001000000100 h
0j
1p
b10000000000000000000000001010100 r
b10000000000000000000000001010000 s
b10000000000000000000001000000100 t
#60
0p
#61
b00000000000000000000000000011010 %
b10000000000000000000001000000100 2
b10000000000000000000000001010100 G
b10000000000000000000000001011000 H
b00000000000001100010011110000011 I
b01100 K
b01111 M
b0000011 N
b010 O
b0011 R
1S
b0011 b
b0011 c
b00000000000000000000000000000001 h
1j
b00000000100000000000000000000000 k
1p
b10000000000000000000000001011000 r
b10000000000000000000000001010100 s
b00000000100000000000000000000000 t
#62
0p
#63
b00000000000000000000000000011011 %
b00000000100000000000000000000000 5
b10000000000000000000000001011000 G
b10000000000000000000000001011100 H
b00000000000001110010010110000011 I
b01110 K
b01011 M
b10000000000000000000000100000100 d
b10000000000000000000000100000100 f
1p
b10000000000000000000000001011100 r
b10000000000000000000000001011000 s
#64
0p
#65
b00000000000000000000000000011100 %
b00000000100000000000000000000000 1
b10000000000000000000000001011100 G
b10000000000000000000000001100000 H
b00000000000101101000011010010011 I
b01101 K
b00001 L
b01101 M
b0010011 N
b000 O
b0000 R
0S
b00000000000000000000000000000001 \
b000000000001 ]
b0000 b
b0000 c
b00000000000000000000000000000000 d
b10000000000000000000000010111000 e
b00000000000000000000000000000000 f
b00000000000000000000000000000001 g
b00000000000000000000000000000000 k
1p
b10000000000000000000000001100000 r
b10000000000000000000000001011101 s
b00000000000000000000000000000001 t
#66
0p
#67
b00000000000000000000000000011101 %
b00000000000000000000000000000001 3
b10000000000000000000000001100000 G
b10000000000000000000000001100100 H
b00000000111100110000011110110011 I
b00110 K
b01111 L
b01111 M
b0110011 N
b000 Q
0[
b00000000000000000000000000000000 \
b000000001111 ]
1_
0`
b00000000100000000000000000000000 d
b00000000100000000000000000000000 e
b00000000100000000000000000000000 f
b00000000100000000000000000000000 g
b00000001000000000000000000000000 h
0j
b0000000000000000010000000000000000000000000000000000000000000000 l
b0000000000000000010000000000000000000000000000000000000000000000 n
1p
b10000000000000000000000001100100 r
b10000000000000000000000001100000 s
b00000001000000000000000000000000 t
#68
0p
#69
b00000000000000000000000000011110 %
b00000001000000000000000000000000 5
b10000000000000000000000001100100 G
b10000000000000000000000001101000 H
b00000010111101011001100001100011 I
b01011 K
b10000 M
b1100011 N
b001 O
b0000001 P
b011 Q
0U
1V
1[
b00000000000000000000000000110000 \
b000000101111 ]
0_
b0010 b
b0010 c
b00000001000000000000000000000000 e
b00000000000000000000000000110000 g
b00000000100000000000000000110000 h
b0000000000000000000000000000000000011000000000000000000000000000 l
b0000000000000000000000000000000000011000000000000000000000000000 n
1p
b10000000000000000000000010010100 r
b10000000000000000000000010010100 s
b00000000100000000000000000110000 t
1v
#70
0p
#71
b00000000000000000000000000011111 %
b10000000000000000000000010010100 G
b10000000000000000000000010011000 H
b00000000000100000000010100010011 I
b00000 K
b00001 L
b01010 M
b0010011 N
b000 O
b0000000 P
b001 Q
1U
0V
b00000000000000000000000000000001 \
b000000000001 ]
1`
b0000 b
b0000 c
b00000000000000000000000000000000 d
b10000000000000000000000010111000 e
b00000000000000000000000000000000 f
b00000000000000000000000000000001 g
b00000000000000000000000000000001 h
1j
b0000000000000000000000000000000000000000000000000000000000000000 l
b0000000000000000000000000000000000000000000000000000000000000000 n
1p
b10000000000000000000000010011000 r
b10000000000000000000000010010101 s
b00000000000000000000000000000001 t
0v
#72
0p
#73
b00000000000000000000000000100000 %
b00000000000000000000000000000001 0
b10000000000000000000000010011000 G
b10000000000000000000000010011100 H
b00000000010000000000000011101111 I
b00100 L
b00001 M
b1101111 N
b101 Q
1W
b00000000000000000000000000000100 \
b000000000100 ]
0`
b00000000000000000000000000000000 e
b10000000000000000000000010011000 f
b00000000000000000000000000000100 g
b10000000000000000000000010011100 h
0j
b1111111111111111111111111111111000000000000000000000001001100000 l
b0000000000000000000000000000001000000000000000000000001001100000 n
1p
b10000000000000000000000010011100 r
b10000000000000000000000010011100 s
b10000000000000000000000010011100 t
#74
0p
#75
b00000000000000000000000000100001 %
b10000000000000000000000010011100 '
b10000000000000000000000010011100 G
b10000000000000000000000010100000 H
b00000000000100000000000001110011 I
1J
b00001 L
b00000 M
b1110011 N
b111 Q
0U
0W
0[
b00000000000000000000000000000000 \
b000000000001 ]
b10000000000000000000000010011100 e
b00000000000000000000000000000000 f
b10000000000000000000000010011100 g
1j
b0000000000000000000000000000000000000000000000000000000000000000 l
b0000000000000000000000000000000000000000000000000000000000000000 n
1p
b10000000000000000000000010100000 r
#76
0p
#77
b00000000000000000000000000100010 %
b10000000000000000000000010100000 G
b10000000000000000000000010100100 H
b00000000000000000000000001101111 I
0J
b00000 L
b1101111 N
b101 Q
1U
1W
1[
b000000000000 ]
b00000000000000000000000000000000 e
b10000000000000000000000010100000 f
b00000000000000000000000000000000 g
b10000000000000000000000010100000 h
0j
1p
b10000000000000000000000010100000 s
b10000000000000000000000010100100 t
